{"total":16697,"page":1,"per_page":1,"pages":16697,"items":[{"id":16459,"content_number":"파인드 최적배포 15","title":"","keyword":"신사역울쎄라리프팅","tags":"","post_type":"로컬최적배포1","blog_channel":"opt","blog_id":"kahyang","post_number":"224232545936","platform":"blog","published_url":"https://blog.naver.com/kahyang/224232545936","author":"서동균","published_at":"2026-03-30","status":"✅ 발행 완료","project":"","exposure_rank":"2","branch_name":"파인드 최적배포","slot_number":"15","post_type_main":"최적","post_type_sub":"로컬최적배포1","project_month":"","project_branch":"","status_clean":"발행 완료","clean_title":"신사역울쎄라리프팅","author_main":"서동균","author_sub":"","needs_review":0}]}