{"total":11349,"page":1,"per_page":1,"pages":11349,"items":[{"id":16524,"content_number":"유앤여의도 14","title":"","keyword":"여의도 포텐자","tags":"","post_type":"논문글","blog_channel":"br","blog_id":"whwjdejr17927","post_number":"224232403992","platform":"blog","published_url":"https://blog.naver.com/whwjdejr17927/224232403992","author":"오현정","published_at":"2026-03-29","status":"✅ 발행 완료","project":"","exposure_rank":"3","branch_name":"유앤여의도","slot_number":"14","post_type_main":"논문글","post_type_sub":"","project_month":"","project_branch":"","status_clean":"발행 완료","clean_title":"여의도 포텐자","author_main":"오현정","author_sub":"","needs_review":0}]}